hw3
…
## [1]  1  3  4  6  8  9 11 13 14

wyniki_zima <- wyniki %>% 
  filter(okienko == 'zima')

wyniki %>% 
  filter(osoba %in% wektor_x) %>% 
  filter(okienko == 'lato') %>% 
  inner_join(wyniki_zima, by = c('sezon', 'osoba')) %>% 
  mutate(poprawna_kwota = kwota_z_p1.x - kwota_z_p1.y) %>% 
  select(poprawna_kwota, kwota_z_p2 = kwota_z_p2.x) %>% 
  mutate(roznica = poprawna_kwota - kwota_z_p2)

## # A tibble: 27 x 3
##    poprawna_kwota kwota_z_p2 roznica
##             <dbl>      <dbl>   <dbl>
##  1           1475       1480      -5
##  2           1330       1330       0
##  3           2245       2245       0
##  4           1470       1470       0
##  5           1340       1340       0
##  6           2250       2250       0
##  7           1475       1475       0
##  8           1350       1340      10
##  9           2225       2250     -25
## 10           1475       1480      -5
## # ... with 17 more rows
…
